{
  "name": "Taller de lectura y redacción I",
  "image": "portada.jpg",
  "temas": [
    {
      "tema": "Introducción",
      "subtemas": [
        {
          "tema": "Bloque VI",
          "url": "index.html"
        },
        {
          "tema": "Evaluación diagnóstica",
          "url": "mi_entorno_evaluacion_diagnostica.html"
        },
        {
          "tema": "Mis intereses",
          "url": "mis_intereses.html"
        },
                {
          "tema": "Integración",
          "url": "integracion.html"
        }
      ]
    },
    {
      "tema": "Funciones y características de los textos expositivos",
      "subtemas": [
        {
          "tema": "Textos históricos",
          "url": "tema1.0.0.html"
        },
        {
          "tema": "Actividad 1",
          "url": "tema1.0.0A1.html"
        },
        {
          "tema": "Actividad 2",
          "url": "tema1.0.0A2.html"
        }
      ]
    },
    {
      "tema": "Textos periodísticos",
      "subtemas": [
        {
          "tema": "Textos periodísticos",
          "url": "tema2.0.0.html"
        },
        {
          "tema": "Noticia",
          "url": "tema2.1.0.html"
        },
        {
          "tema": "Actividad 3",
          "url": "tema2.1.0A3.html"
        },
        {
          "tema": "Crónica",
          "url": "tema2.2.0.html"
        },
        {
          "tema": "Actividad 4",
          "url": "tema2.2.0A4.html"
        },
        {
          "tema": "Reportaje",
          "url": "tema2.3.0.html"
        },
        {
          "tema": "Actividad 5",
          "url": "tema2.3.0A5.html"
        },
        {
          "tema": "Integración",
          "url": "tema2.3.0_integracion.html"
        },
        {
          "tema": "Entrevista",
          "url": "tema2.4.0.html"
        },
        {
          "tema": "Actividad 6",
          "url": "tema2.4.0A6.html"
        }
      ]
    },
    {
      "tema": "Textos escolares",
      "subtemas": [
        {
          "tema": "Reporte de investigación",
          "url": "tema3.0.0.html"
        },
        {
          "tema": "Actividad 7",
          "url": "tema3.0.0A7.html"
        },
        {
          "tema": "Exposición escrita",
          "url": "tema3.1.0.html"
        },
        {
          "tema": "Exposición oral",
          "url": "tema3.2.0.html"
        },
        {
          "tema": "Actividad 8",
          "url": "tema3.2.0A8.html"
        },
        {
          "tema": "Evaluación formativa",
          "url": "tema3.2.0_evaluacion_formativa.html"
        },
        {
          "tema": "Integración",
          "url": "tema3.2.0_integracion.html"
        },
        {
          "tema": "Autoevaluación",
          "url": "tema3.2.0_autoevaluacion.html"
        },
        {
          "tema": "Evaluación sumativa",
          "url": "tema3.2.0_evaluacion_sumativa.html"
        },
        {
          "tema": "Prueba tipo PLANEA",
          "url": "tema3.2.0_prueba_planea.html"
        },
        {
          "tema": "Bibliografía",
          "url": "bibliografia.html"
        }
      ]
    }
  ]
}